%!PS-Adobe-3.0
%%Creator: Gnome Print Version 1.115.0
%%CreationDate: D:20020606200641
%%LanguageLevel: 2
%%DocumentMedia: Regular 595 841 0 () ()
%%Orientation: Portrait
%%BoundingBox: 0 0 596 842
%%Pages: 1
%%PageOrder: Ascend
%%Title: 
%%DocumentSuppliedResources: procset pnome-print-procs-1.115.0
%%EndComments
%%BeginDefaults
%%PageMedia: Regular
%%EndDefaults
%%BeginProlog
%%BeginResource: procset gnome-print-procs-1.115.0
/B {load def} bind def
/n /newpath B /m /moveto B /l /lineto B /c /curveto B /h /closepath B
/q /gsave B /Q /grestore B
/J /setlinecap B /j /setlinejoin B /w /setlinewidth B /M /setmiterlimit B
/d /setdash B
/rg /setrgbcolor B
/W /clip B /W* /eoclip B
/f /fill B /f* /eofill B
/S /stroke B
/cm /concat B
/SP /showpage B
/FF /findfont B /F {scalefont setfont} bind def
%%EndResource
%%EndProlog
%%BeginSetup
<<
/PageSize [595 841]
/ImagingBBox null
/Orientation 0
>> setpagedevice
%%EndSetup
%%Page: 1 1
%%PageResources: (atend)
n
0 0 m
595.276 0 l
595.276 841.89 l
0 841.89 l
0 0 l
h
W*
q
0 0 0 rg
1 w 0 J 0 j 11 M
[]0 d
%% This ps is bad, stack underflowing now...
pop
pop
pop
pop
pop
n
100 100 m
200 200 l
S
Q
SP
%%PageTrailer
%%PageResources: procset gnome-print-procs-1.115.0
%%Trailer
%%EOF
